_____TASK_5______
iter: 1

coordinate	 counter 6/10000	percentage: 0.06%
hooke jeeves	 counter 9/10000	percentage: 0.09%

iter:2
coordinate	 counter 3/10000	percentage: 0.03%
hooke jeeves	 counter 8/10000	percentage: 0.08%

iter:3
coordinate	 counter 9/10000	percentage: 0.09%
hooke jeeves	 counter 5/10000	percentage: 0.05%